…
    ## Rows: 96 Columns: 11
    ## ── Column specification ────────────────────────────────────────────────────────
    ## Delimiter: ","
    ## chr (3): Fridge, Cheap, Data_taker
    ## dbl (8): Index, Tray, Chocolate_chips, Height, Length, Width, Circumference,...
    ## 
    ## ℹ Use `spec()` to retrieve the full column specification for this data.
    ## ℹ Specify the column types or set `show_col_types = FALSE` to quiet this message.

``` r
df_cookie
```

    ## # A tibble: 96 × 11
    ##    Index  Tray Fridge    Cheap Chocolate_chips Height Length Width Circumference
    ##    <dbl> <dbl> <chr>     <chr>           <dbl>  <dbl>  <dbl> <dbl>         <dbl>
    ##  1     1     1 No fridge Cheap               5   13.8   69.5  63.5          22  
    ##  2     2     1 No fridge Cheap              10   16.0   73.2  68.0          23  
    ##  3     3     1 No fridge Cheap              15   12.9   79.4  65.2          23.5
    ##  4     4     1 No fridge Cheap               5   15.4   74.5  67.2          22.5
    ##  5     5     1 No fridge Cheap              10   14.4   73.1  65.3          22.5
    ##  6     6     1 No fridge Cheap              15   15.2   75.3  65.6          22.5
    ##  7     7     1 No fridge Expe…               5   15.9   57.2  55.6          17.5
    ##  8     8     1 No fridge Expe…              10   17.9   63.8  54.4          18.5
    ##  9     9     1 No fridge Expe…              15   20.0   62.2  55.6          18.5
    ## 10    10     1 No fridge Expe…               5   14.9   62.4  59.5          19  
    ## # ℹ 86 more rows
    ## # ℹ 2 more variables: Weight <dbl>, Data_taker <chr>
…
